The dplyr and magtitr packages
…
#install.packages('magritrr')
library(magrittr)

flights %>%
  group_by(year, month, day) %>%
  select(arr_delay, dep_delay) %>%
  summarise(
    arr = mean(arr_delay, na.rm = TRUE),
    dep = mean(dep_delay, na.rm = TRUE)
  ) %>%
  filter(arr > 30 | dep > 30)

## Adding missing grouping variables: `year`, `month`, `day`

## Source: local data frame [49 x 5]
## Groups: year, month [11]
## 
##     year month   day      arr      dep
##    <int> <int> <int>    <dbl>    <dbl>
## 1   2013     1    16 34.24736 24.61287
## 2   2013     1    31 32.60285 28.65836
## 3   2013     2    11 36.29009 39.07360
## 4   2013     2    27 31.25249 37.76327
## 5   2013     3     8 85.86216 83.53692
## 6   2013     3    18 41.29189 30.11796
## 7   2013     4    10 38.41231 33.02368
## 8   2013     4    12 36.04814 34.83843
## 9   2013     4    18 36.02848 34.91536
## 10  2013     4    19 47.91170 46.12783
## # ... with 39 more rows
…
